%YAML 1.1
%TAG !u! tag:unity3d.com,2011:
--- !u!111 &2495852883517526999
Animation:
  m_ObjectHideFlags: 0
  m_CorrespondingSourceObject: {fileID: 0}
  m_PrefabInstance: {fileID: 0}
  m_PrefabAsset: {fileID: 0}
  m_GameObject: {fileID: 724932838867679941}
  m_Enabled: 1
  serializedVersion: 3
  m_Animation: {fileID: 7400000, guid: 74db4e38cb8a63e46901c5023def502e, type: 2}
  m_Animations:
  - {fileID: 7400000, guid: 74db4e38cb8a63e46901c5023def502e, type: 2}
  m_WrapMode: 0
  m_PlayAutomatically: 1
  m_AnimatePhysics: 0
  m_CullingType: 0
--- !u!1001 &8090101538634041876
PrefabInstance:
  m_ObjectHideFlags: 0
  serializedVersion: 2
  m_Modification:
    m_TransformParent: {fileID: 0}
    m_Modifications:
    - target: {fileID: 3048412365989572673, guid: befcf1b5eaf7ffd49a0155403bd65191,
        type: 3}
      propertyPath: m_Materials.Array.data[0]
      value: 
      objectReference: {fileID: 2100000, guid: 8045bc6923af380419fabcfee5469de1, type: 2}
    - target: {fileID: 5481429642830168770, guid: befcf1b5eaf7ffd49a0155403bd65191,
        type: 3}
      propertyPath: m_LocalPosition.x
      value: 0.08
      objectReference: {fileID: 0}
    - target: {fileID: 5481429642830168770, guid: befcf1b5eaf7ffd49a0155403bd65191,
        type: 3}
      propertyPath: m_LocalPosition.y
      value: -0.01
      objectReference: {fileID: 0}
    - target: {fileID: 5481429642830168770, guid: befcf1b5eaf7ffd49a0155403bd65191,
        type: 3}
      propertyPath: m_LocalPosition.z
      value: 8.04
      objectReference: {fileID: 0}
    - target: {fileID: 5481429642830168770, guid: befcf1b5eaf7ffd49a0155403bd65191,
        type: 3}
      propertyPath: m_LocalRotation.x
      value: 0
      objectReference: {fileID: 0}
    - target: {fileID: 5481429642830168770, guid: befcf1b5eaf7ffd49a0155403bd65191,
        type: 3}
      propertyPath: m_LocalRotation.y
      value: -0
      objectReference: {fileID: 0}
    - target: {fileID: 5481429642830168770, guid: befcf1b5eaf7ffd49a0155403bd65191,
        type: 3}
      propertyPath: m_LocalRotation.z
      value: -0
      objectReference: {fileID: 0}
    - target: {fileID: 5481429642830168770, guid: befcf1b5eaf7ffd49a0155403bd65191,
        type: 3}
      propertyPath: m_LocalRotation.w
      value: 1
      objectReference: {fileID: 0}
    - target: {fileID: 5481429642830168770, guid: befcf1b5eaf7ffd49a0155403bd65191,
        type: 3}
      propertyPath: m_RootOrder
      value: 0
      objectReference: {fileID: 0}
    - target: {fileID: 5481429642830168770, guid: befcf1b5eaf7ffd49a0155403bd65191,
        type: 3}
      propertyPath: m_LocalEulerAnglesHint.x
      value: 0
      objectReference: {fileID: 0}
    - target: {fileID: 5481429642830168770, guid: befcf1b5eaf7ffd49a0155403bd65191,
        type: 3}
      propertyPath: m_LocalEulerAnglesHint.y
      value: 0
      objectReference: {fileID: 0}
    - target: {fileID: 5481429642830168770, guid: befcf1b5eaf7ffd49a0155403bd65191,
        type: 3}
      propertyPath: m_LocalEulerAnglesHint.z
      value: 0
      objectReference: {fileID: 0}
    - target: {fileID: 8812043564606730449, guid: befcf1b5eaf7ffd49a0155403bd65191,
        type: 3}
      propertyPath: m_Name
      value: FloorGlow02
      objectReference: {fileID: 0}
    m_RemovedComponents: []
  m_SourcePrefab: {fileID: 100100000, guid: befcf1b5eaf7ffd49a0155403bd65191, type: 3}
--- !u!1 &724932838867679941 stripped
GameObject:
  m_CorrespondingSourceObject: {fileID: 8812043564606730449, guid: befcf1b5eaf7ffd49a0155403bd65191,
    type: 3}
  m_PrefabInstance: {fileID: 8090101538634041876}
  m_PrefabAsset: {fileID: 0}
